{
  "activeBills": [
    "258",
    "257",
    "256",
    "255",
    "254",
    "253",
    "252",
    "251",
    "250",
    "249",
    "248",
    "247",
    "246",
    "245",
    "244",
    "243",
    "242",
    "241",
    "240",
    "239",
    "238",
    "237",
    "236",
    "235",
    "234",
    "233",
    "232",
    "231",
    "230",
    "229",
    "228",
    "227",
    "226",
    "225",
    "224",
    "223",
    "222",
    "221",
    "220",
    "219",
    "218",
    "217",
    "216",
    "215",
    "214",
    "213",
    "212",
    "211",
    "210",
    "209",
    "208",
    "207",
    "206"
  ],
  "staleBills": [],
  "closedBills": [
    "25",
    "105",
    "24",
    "90",
    "3",
    "2",
    "35",
    "21",
    "18",
    "1"
  ]
}